<?xml version="1.0" encoding="utf-8"?>
<!-- Generator: Adobe Illustrator 16.0.0, SVG Export Plug-In . SVG Version: 6.00 Build 0)  -->
<!DOCTYPE svg PUBLIC "-//W3C//DTD SVG 1.1//EN" "http://www.w3.org/Graphics/SVG/1.1/DTD/svg11.dtd">
<svg version="1.1" id="Layer_1" xmlns="http://www.w3.org/2000/svg" xmlns:xlink="http://www.w3.org/1999/xlink" x="0px" y="0px"
	 width="153.333px" height="42.667px" viewBox="0 0 153.333 42.667" enable-background="new 0 0 153.333 42.667"
	 xml:space="preserve">
<rect display="none" stroke="#FFFFFF" stroke-miterlimit="10" width="153.333" height="42.667"/>
<g>
	<path fill="#FFFFFF" stroke="#FFFFFF" stroke-width="0.333" stroke-miterlimit="10" d="M40.034,29.991h2.403
		c1.577,0,2.547,0.759,2.547,2.038v0.02c0,1.346-1.086,2.086-2.623,2.086h-2v2.585h-0.327V29.991z M42.37,33.827
		c1.395,0,2.288-0.654,2.288-1.769V32.04c0-1.106-0.865-1.75-2.25-1.75h-2.047v3.537H42.37z"/>
	<path fill="#FFFFFF" stroke="#FFFFFF" stroke-width="0.333" stroke-miterlimit="10" d="M46.662,31.876h0.309v1.48
		c0.288-0.826,1.027-1.604,2.057-1.576v0.316h-0.048c-1.173,0-2.008,1.135-2.008,2.327v2.297h-0.309V31.876z"/>
	<path fill="#FFFFFF" stroke="#FFFFFF" stroke-width="0.333" stroke-miterlimit="10" d="M49.851,34.317v-0.019
		c0-1.355,1.029-2.537,2.519-2.537c1.48,0,2.499,1.163,2.499,2.518v0.019c0,1.355-1.019,2.538-2.508,2.538
		C50.88,36.836,49.851,35.673,49.851,34.317z M54.542,34.308v-0.02c0-1.221-0.933-2.239-2.191-2.239
		c-1.278,0-2.163,1.019-2.163,2.239v0.02c0,1.221,0.923,2.24,2.182,2.24C53.648,36.547,54.542,35.528,54.542,34.308z"/>
	<path fill="#FFFFFF" stroke="#FFFFFF" stroke-width="0.333" stroke-miterlimit="10" d="M56.614,31.876h0.307v1.336
		c0.337-0.807,1.087-1.451,2.144-1.451c1.307,0,2.393,1.047,2.393,2.527v0.02c0,1.471-1.086,2.528-2.393,2.528
		c-1.066,0-1.816-0.635-2.144-1.433v2.855h-0.307V31.876z M61.132,34.317v-0.019c0-1.278-0.894-2.24-2.096-2.24
		c-1.191,0-2.133,0.98-2.133,2.23v0.02c0,1.25,0.951,2.23,2.133,2.23C60.258,36.538,61.132,35.615,61.132,34.317z"/>
	<path fill="#FFFFFF" stroke="#FFFFFF" stroke-width="0.333" stroke-miterlimit="10" d="M62.896,34.298v-0.019
		c0-1.422,0.98-2.518,2.317-2.518c1.46,0,2.22,1.249,2.22,2.547v0.106h-4.2c0.057,1.317,0.989,2.134,2.076,2.134
		c0.75,0,1.355-0.395,1.739-0.894l0.231,0.183c-0.443,0.577-1.096,1-1.98,1C63.993,36.836,62.896,35.846,62.896,34.298z
		 M67.097,34.135c-0.048-1.058-0.692-2.086-1.903-2.086c-1.096,0-1.904,0.894-1.96,2.086H67.097z"/>
	<path fill="#FFFFFF" stroke="#FFFFFF" stroke-width="0.333" stroke-miterlimit="10" d="M69.141,31.876h0.307v1.48
		c0.289-0.826,1.029-1.604,2.057-1.576v0.316h-0.047c-1.173,0-2.01,1.135-2.01,2.327v2.297h-0.307V31.876z"/>
	<path fill="#FFFFFF" stroke="#FFFFFF" stroke-width="0.333" stroke-miterlimit="10" d="M73.174,35.48v-3.326h-0.74v-0.279h0.74
		v-1.625h0.308v1.625h1.759v0.279h-1.759v3.296c0,0.711,0.375,1.068,1.009,1.068c0.241,0,0.481-0.058,0.73-0.173v0.298
		c-0.24,0.115-0.49,0.164-0.759,0.164C73.685,36.807,73.174,36.354,73.174,35.48z"/>
	<path fill="#FFFFFF" stroke="#FFFFFF" stroke-width="0.333" stroke-miterlimit="10" d="M80.786,31.876h0.327l-2.183,4.97
		c-0.509,1.153-0.923,1.441-1.576,1.441c-0.355,0-0.672-0.105-0.932-0.24l0.125-0.259c0.231,0.125,0.51,0.211,0.817,0.211
		c0.539,0,0.855-0.26,1.317-1.288l-2.327-4.835H76.7l2.134,4.508L80.786,31.876z"/>
	<path fill="#FFFFFF" stroke="#FFFFFF" stroke-width="0.333" stroke-miterlimit="10" d="M85.883,29.991h0.308l2.845,4.096
		l2.836-4.096h0.307v6.729h-0.327v-6.162l-2.816,4.038h-0.02l-2.815-4.038v6.162h-0.318V29.991z"/>
	<path fill="#FFFFFF" stroke="#FFFFFF" stroke-width="0.333" stroke-miterlimit="10" d="M93.972,35.355v-0.019
		c0-1.01,0.913-1.558,2.144-1.558c0.674,0,1.26,0.116,1.73,0.27v-0.327c0-1.096-0.653-1.634-1.73-1.634
		c-0.596,0-1.096,0.163-1.576,0.404l-0.116-0.269c0.54-0.26,1.067-0.423,1.711-0.423c0.664,0,1.183,0.173,1.538,0.528
		c0.307,0.317,0.48,0.779,0.48,1.375v3.018h-0.308v-1.009c-0.25,0.528-0.922,1.125-2.037,1.125
		C94.875,36.836,93.972,36.335,93.972,35.355z M97.855,34.933v-0.596c-0.47-0.154-1.028-0.269-1.75-0.269
		c-1.066,0-1.807,0.451-1.807,1.249v0.02c0,0.797,0.721,1.211,1.528,1.211C97,36.547,97.855,35.797,97.855,34.933z"/>
	<path fill="#FFFFFF" stroke="#FFFFFF" stroke-width="0.333" stroke-miterlimit="10" d="M100.149,31.876h0.308v1.153
		c0.221-0.577,0.827-1.269,1.864-1.269c1.278,0,1.999,0.865,1.999,2.125v2.835h-0.307v-2.788c0-1.125-0.606-1.884-1.73-1.884
		c-1.018,0-1.826,0.836-1.826,1.941v2.73h-0.308V31.876z"/>
	<path fill="#FFFFFF" stroke="#FFFFFF" stroke-width="0.333" stroke-miterlimit="10" d="M105.912,35.355v-0.019
		c0-1.01,0.914-1.558,2.143-1.558c0.674,0,1.26,0.116,1.73,0.27v-0.327c0-1.096-0.653-1.634-1.73-1.634
		c-0.595,0-1.095,0.163-1.576,0.404l-0.116-0.269c0.54-0.26,1.068-0.423,1.711-0.423c0.665,0,1.183,0.173,1.539,0.528
		c0.307,0.317,0.48,0.779,0.48,1.375v3.018h-0.308v-1.009c-0.25,0.528-0.922,1.125-2.037,1.125
		C106.816,36.836,105.912,36.335,105.912,35.355z M109.795,34.933v-0.596c-0.47-0.154-1.027-0.269-1.75-0.269
		c-1.066,0-1.807,0.451-1.807,1.249v0.02c0,0.797,0.721,1.211,1.529,1.211C108.94,36.547,109.795,35.797,109.795,34.933z"/>
	<path fill="#FFFFFF" stroke="#FFFFFF" stroke-width="0.333" stroke-miterlimit="10" d="M111.992,37.537l0.183-0.25
		c0.606,0.461,1.279,0.702,2.028,0.702c1.221,0,2.047-0.693,2.047-2.047v-0.875c-0.375,0.74-1.133,1.298-2.114,1.298
		c-1.259,0-2.364-0.98-2.364-2.287v-0.019c0-1.317,1.105-2.298,2.364-2.298c0.981,0,1.739,0.557,2.114,1.278v-1.163h0.318v4.104
		c0,0.711-0.231,1.279-0.625,1.672c-0.413,0.414-1.028,0.635-1.74,0.635C113.387,38.287,112.656,38.037,111.992,37.537z
		 M116.279,34.078v-0.019c0-1.125-0.989-2-2.114-2c-1.134,0-2.057,0.846-2.057,1.991v0.02c0,1.124,0.932,1.999,2.057,1.999
		C115.29,36.067,116.279,35.202,116.279,34.078z"/>
	<path fill="#FFFFFF" stroke="#FFFFFF" stroke-width="0.333" stroke-miterlimit="10" d="M118.323,34.298v-0.019
		c0-1.422,0.98-2.518,2.317-2.518c1.461,0,2.22,1.249,2.22,2.547v0.106h-4.2c0.057,1.317,0.989,2.134,2.075,2.134
		c0.75,0,1.356-0.395,1.74-0.894l0.231,0.183c-0.443,0.577-1.096,1-1.98,1C119.418,36.836,118.323,35.846,118.323,34.298z
		 M122.523,34.135c-0.048-1.058-0.691-2.086-1.903-2.086c-1.096,0-1.904,0.894-1.96,2.086H122.523z"/>
	<path fill="#FFFFFF" stroke="#FFFFFF" stroke-width="0.333" stroke-miterlimit="10" d="M124.567,31.876h0.307v1.087
		c0.212-0.567,0.789-1.202,1.654-1.202c0.971,0,1.499,0.586,1.711,1.278c0.24-0.633,0.856-1.278,1.74-1.278
		c1.105,0,1.836,0.75,1.836,2.066v2.893h-0.307v-2.864c0-1.172-0.616-1.807-1.548-1.807c-0.827,0-1.615,0.75-1.615,1.846v2.826
		h-0.309v-2.874c0-1.153-0.624-1.797-1.537-1.797c-0.847,0-1.625,0.808-1.625,1.855v2.816h-0.307V31.876z"/>
	<path fill="#FFFFFF" stroke="#FFFFFF" stroke-width="0.333" stroke-miterlimit="10" d="M133.51,34.298v-0.019
		c0-1.422,0.981-2.518,2.317-2.518c1.46,0,2.22,1.249,2.22,2.547v0.106h-4.201c0.058,1.317,0.99,2.134,2.076,2.134
		c0.75,0,1.356-0.395,1.741-0.894l0.23,0.183c-0.442,0.577-1.096,1-1.98,1C134.606,36.836,133.51,35.846,133.51,34.298z
		 M137.71,34.135c-0.047-1.058-0.692-2.086-1.903-2.086c-1.096,0-1.903,0.894-1.961,2.086H137.71z"/>
	<path fill="#FFFFFF" stroke="#FFFFFF" stroke-width="0.333" stroke-miterlimit="10" d="M139.754,31.876h0.308v1.153
		c0.221-0.577,0.826-1.269,1.865-1.269c1.278,0,1.999,0.865,1.999,2.125v2.835h-0.308v-2.788c0-1.125-0.606-1.884-1.73-1.884
		c-1.019,0-1.826,0.836-1.826,1.941v2.73h-0.308V31.876z"/>
	<path fill="#FFFFFF" stroke="#FFFFFF" stroke-width="0.333" stroke-miterlimit="10" d="M146.181,35.48v-3.326h-0.74v-0.279h0.74
		v-1.625h0.308v1.625h1.759v0.279h-1.759v3.296c0,0.711,0.375,1.068,1.009,1.068c0.241,0,0.48-0.058,0.73-0.173v0.298
		c-0.24,0.115-0.49,0.164-0.759,0.164C146.69,36.807,146.181,36.354,146.181,35.48z"/>
</g>
<g>
	<path fill="#FFFFFF" d="M39.968,15.934v-0.056c0-5.375,3.883-10.158,9.848-10.158c5.965,0,9.82,4.783,9.82,10.158v0.056
		c0,5.374-3.883,10.158-9.848,10.158C43.822,26.091,39.968,21.308,39.968,15.934z M58.651,15.961v-0.056
		c0-4.98-3.63-9.313-8.863-9.313c-5.262,0-8.835,4.277-8.835,9.257v0.056c0,4.98,3.63,9.313,8.892,9.313
		C55.077,25.219,58.651,20.942,58.651,15.961z"/>
	<path fill="#FFFFFF" d="M65.511,6.057h8.132c2.504,0,4.417,0.704,5.627,1.885c0.9,0.929,1.435,2.195,1.435,3.658v0.056
		c0,3.32-2.56,5.262-6.19,5.571l6.556,8.525h-1.21l-6.416-8.413h-6.978v8.413h-0.957V6.057z M73.39,16.468
		c4.052,0,6.359-1.97,6.359-4.755v-0.056c0-2.955-2.279-4.727-6.162-4.727h-7.119v9.539H73.39z"/>
	<path fill="#FFFFFF" d="M85.654,15.961v-0.056c0-5.29,3.798-10.186,9.735-10.186c3.095,0,5.008,0.929,6.978,2.561l-0.619,0.731
		c-1.716-1.435-3.517-2.42-6.415-2.42c-5.234,0-8.695,4.446-8.695,9.286v0.056c0,5.093,3.292,9.313,8.835,9.313
		c2.757,0,5.149-1.21,6.725-2.533v-6.049h-7.006v-0.928h7.935v7.344c-1.829,1.66-4.502,3.011-7.682,3.011
		C89.256,26.091,85.654,21.477,85.654,15.961z"/>
	<path fill="#FFFFFF" d="M116.938,5.917h0.9l9.342,19.837h-1.041l-2.673-5.74h-12.184l-2.701,5.74h-0.985L116.938,5.917z
		 M123.043,19.141L117.36,7.042l-5.656,12.099H123.043z"/>
	<path fill="#FFFFFF" d="M132.127,6.057H133l14.406,18.064V6.057h0.929v19.696h-0.76L133.056,7.549v18.205h-0.929V6.057z"/>
</g>
<g>
	<path fill="#FFFFFF" d="M4.321,5.72h1.423l13.164,18.944L32.026,5.72h1.423v31.128h-1.512V8.343l-13.03,18.679h-0.088L5.79,8.343
		v28.505H4.321V5.72z"/>
</g>
</svg>
